BULL91_32 -- 82 -- 10 -- rpag
BULL91_32 -- 77* -- 10
CHANG06_3 -- 52 -- 6 -- rpag
CHANG06_3 -- 52* -- 6
CHEN99_15 -- 52 -- 6 -- rpag
CHEN99_15 -- 52* -- 6
CHEN99_28A -- 73 -- 10 -- rpag
CHEN99_28A -- 70* -- 10
CHEN99_28B -- 60 -- 10 -- rpag
CHEN99_28B -- 59* -- 10
CHENYAO01_28A -- 73 -- 8 -- rpag
CHENYAO01_28A -- 67* -- 8
CHENYAO01_28B -- 72 -- 9 -- rpag
CHENYAO01_28B -- 63* -- 9
DEMPSTER02_25 -- 169 -- 20 -- rpag
DEMPSTER02_25 -- 162* -- 20
DEMPSTER04_A3 -- 41 -- 5 -- rpag
DEMPSTER04_A3 -- 33* -- 4
DEMPSTER04_B3 -- 44 -- 5 -- rpag
DEMPSTER04_B3 -- 38 -- 4 -- 248.324002528
DEMPSTER04_C3 -- 68 -- 7 -- rpag
DEMPSTER04_C3 -- 59* -- 7
DEMPSTER04_D3 -- 54 -- 5 -- rpag
DEMPSTER04_D3 -- 54 -- 5 -- 255.339010208
DEMPSTER04_E3 -- 84 -- 9 -- rpag
DEMPSTER04_E3 -- 83* -- 9
DEMPSTER04_F3 -- 72 -- 9 -- rpag
DEMPSTER04_F3 -- 62* -- 9
DEMPSTER04_G4 -- 79 -- 10 -- rpag
DEMPSTER04_G4 -- 78* -- 10
DEMPSTER04_H4 -- 96 -- 10 -- rpag
DEMPSTER04_H4 -- 91** -- 10
DEMPSTER04_I5 -- 88 -- 10 -- rpag
DEMPSTER04_I5 -- 87* -- 10
DEMPSTER04_J5 -- 86 -- 9 -- rpag
DEMPSTER04_J5 -- TO
DEMPSTER04_K5 -- 85 -- 10 -- rpag
DEMPSTER04_K5 -- 75* -- 10
DEMPSTER04_L5 -- 113 -- 11 -- rpag
DEMPSTER04_L5 -- 100* -- 11
GAUSSIAN_3 -- 25 -- 4 -- rpag
GAUSSIAN_3 -- 24 -- 4 -- 24.745992499
GAUSSIAN_5 -- 39 -- 6 -- rpag
GAUSSIAN_5 -- 34* -- 6
GOODMAN77_A3 -- 0 -- rpag
GOODMAN77_A3 -- 0
GOODMAN77_B3 -- 0 -- rpag
GOODMAN77_B3 -- 0
GOODMAN77_C7 -- 8 -- 1 -- rpag
GOODMAN77_C7 -- 8 -- 1 -- 0.005326356
GOODMAN77_D7 -- 13 -- 2 -- rpag
GOODMAN77_D7 -- 13 -- 2 -- 0.013034841
GOODMAN77_E11 -- 33 -- 4 -- rpag
GOODMAN77_E11 -- 27 -- 3 -- 18.641762634
GOODMAN77_F11 -- 43 -- 5 -- rpag
GOODMAN77_F11 -- 37 -- 5 -- 1130.938232392
GOODMAN77_G11 -- 40 -- 5 -- rpag
GOODMAN77_G11 -- 31 -- 4 -- 1522.494186245
GOODMAN77_H15 -- 55 -- 7 -- rpag
GOODMAN77_H15 -- 50* -- 7
GOODMAN77_I19 -- 63 -- 9 -- rpag
GOODMAN77_I19 -- 51* -- 9
HIGHPASS_15 -- 59 -- 12 -- rpag
HIGHPASS_15 -- 55* -- 12
HIGHPASS_5 -- 23 -- 4 -- rpag
HIGHPASS_5 -- 23 -- 4 -- 4.682244888
HIGHPASS_9 -- 29 -- 5 -- rpag
HIGHPASS_9 -- 29 -- 5 -- 52.540049035
JAIN91_11 -- 23 -- 3 -- rpag
JAIN91_11 -- 23 -- 3 -- 0.474425782
JANG02_11 -- 26 -- 3 -- rpag
JANG02_11 -- 24 -- 3 -- 0.067101443
JHENG04_29A -- 73 -- 10 -- rpag
JHENG04_29A -- 69* -- 10
JHENG04_29B -- 81 -- 9 -- rpag
JHENG04_29B -- 78* -- 9
JHENG04_30 -- 64 -- 8 -- rpag
JHENG04_30 -- 61* -- 8
JOHANSSON08_28 -- 120 -- 14 -- rpag
JOHANSSON08_28 -- 108* -- 14
JOHANSSON08_30 -- 287 -- 33 -- rpag
JOHANSSON08_30 -- 272* -- 33
JOHANSSON08_A5 -- 63 -- 7 -- rpag
JOHANSSON08_A5 -- 51* -- 7
JOHANSSON08_B5 -- 65 -- 7 -- rpag
JOHANSSON08_B5 -- 65* -- 7
KWENTUS97_11 -- 33 -- 4 -- rpag
KWENTUS97_11 -- 27 -- 3 -- 10.621012651
KWENTUS97_15 -- 52 -- 5 -- rpag
KWENTUS97_15 -- 38 -- 4 -- 1444.711687743
KWENTUS97_47 -- 130 -- 20 -- rpag
KWENTUS97_47 -- 122** -- 20
LAPLACIAN_3 -- 35 -- 4 -- rpag
LAPLACIAN_3 -- 23 -- 3 -- 4.879978705
LIM83_121 -- 300 -- 54 -- rpag
LIM83_121 -- 286* -- 54
LIM83_36 -- 45 -- 5 -- rpag
LIM83_36 -- 40 -- 5 -- 1.185219778
LIM83_37 -- 41 -- 5 -- rpag
LIM83_37 -- 40 -- 5 -- 24.669877931
LIM83_63 -- 164 -- 23 -- rpag
LIM83_63 -- 156* -- 23
LIM83A_36 -- 41 -- 5 -- rpag
LIM83A_36 -- 40 -- 5 -- 14.658368295
LIMAKT08_121 -- 264 -- 43 -- rpag
LIMAKT08_121 -- 233* -- 43
LIMPASKO99_121 -- 289 -- 54 -- rpag
LIMPASKO99_121 -- 270* -- 54
LIMYU07_121 -- 252 -- 45 -- rpag
LIMYU07_121 -- 239* -- 45
LOWPASS_15 -- 170 -- 27 -- rpag
LOWPASS_15 -- TO
LOWPASS_5 -- 55 -- 7 -- rpag
LOWPASS_5 -- 47* -- 6
LOWPASS_9 -- 101 -- 13 -- rpag
LOWPASS_9 -- 91* -- 13
MARTINEZ02_4 -- 59 -- 6 -- rpag
MARTINEZ02_4 -- 54* -- 6
NIELSEN89_67A -- 170 -- 32 -- rpag
NIELSEN89_67A -- 167* -- 32
NIELSEN89_67B -- 184 -- 35 -- rpag
NIELSEN89_67B -- 171** -- 35
POTKONJAK96_4 -- 59 -- 6 -- rpag
POTKONJAK96_4 -- 56* -- 6
ROSA04_49 -- 86 -- 11 -- rpag
ROSA04_49 -- 81* -- 11
SAMUELI89_60 -- 183 -- 28 -- rpag
SAMUELI89_60 -- 169* -- 28
SHAHEIN11_B -- 85 -- 10 -- rpag
SHAHEIN11_B -- 77* -- 10
SHAHEIN11_S2 -- 166 -- 19 -- rpag
SHAHEIN11_S2 -- 160* -- 19
SHI11_A -- 124 -- 16 -- rpag
SHI11_A -- TO
SHI11_G1 -- 15 -- 2 -- rpag
SHI11_G1 -- 15 -- 2 -- 0.007061952
SHI11_L2 -- 132 -- 18 -- rpag
SHI11_L2 -- 122* -- 18
SHI11_S1_A -- 32 -- 4 -- rpag
SHI11_S1_A -- 30 -- 4 -- 1.324952151
SHI11_S1_B -- 33 -- 5 -- rpag
SHI11_S1_B -- 33 -- 5 -- 98.00828638
SHI11_S2 -- 156 -- 18 -- rpag
SHI11_S2 -- 138* -- 18
SHI11_X1 -- 40 -- 5 -- rpag
SHI11_X1 -- 40 -- 5 -- 203.538830145
SHI11_Y1 -- 56 -- 7 -- rpag
SHI11_Y1 -- 56* -- 7
SHI11_Y2 -- 91 -- 11 -- rpag
SHI11_Y2 -- 88* -- 11
UNSHARP_3-1 -- 22 -- 4 -- rpag
UNSHARP_3-1 -- 22 -- 4 -- 9.68867901
UNSHARP_3-2 -- 38 -- 6 -- rpag
UNSHARP_3-2 -- 34* -- 6
VINOD03_15 -- 49 -- 8 -- rpag
VINOD03_15 -- 48* -- 8
VINOD03_26A -- 53 -- 7 -- rpag
VINOD03_26A -- 51* -- 7
VINOD03_26B -- 165 -- 20 -- rpag
VINOD03_26B -- 162** -- 20
XU07_15 -- 48 -- 6 -- rpag
XU07_15 -- 39* -- 6
XU07_28 -- 63 -- 9 -- rpag
XU07_28 -- 63* -- 9
YEUNG04_40 -- 184 -- 28 -- rpag
YEUNG04_40 -- 175* -- 28
YLI01_30 -- 53 -- 8 -- rpag
YLI01_30 -- 42* -- 8
YOSHINO90_64 -- 194 -- 27 -- rpag
YOSHINO90_64 -- 178* -- 27
ZAHOSAM89_25 -- 51 -- 6 -- rpag
ZAHOSAM89_25 -- 44 -- 6 -- 529.255397488
